{
  "content": [
    {
      "id": 5,
      "title": "Job Five",
      "description": "Description Five",
      "slug": "job-five",
      "createdAt": "2021-07-11T17:32:26.000+00:00",
      "updatedAt": "2021-07-11T17:32:26.000+00:00",
      "publishedAt": "2021-07-11",
      "deletedAt": null,
      "latitude": 27.174835,
      "longitude": 78.040753,
      "categoryId": 3,
      "userId": 1,
      "tags": [
        {
          "id": 21,
          "text": "Informatics",
          "createdAt": "2021-07-11T17:32:27.000+00:00",
          "updatedAt": "2021-07-11T17:32:27.000+00:00",
          "deletedAt": null
        },
        {
          "id": 22,
          "text": "Decoration",
          "createdAt": "2021-07-11T17:32:27.000+00:00",
          "updatedAt": "2021-07-11T17:32:27.000+00:00",
          "deletedAt": null
        },
        {
          "id": 23,
          "text": "Animals",
          "createdAt": "2021-07-11T17:32:27.000+00:00",
          "updatedAt": "2021-07-11T17:32:27.000+00:00",
          "deletedAt": null
        },
        {
          "id": 24,
          "text": "Troubleshooting",
          "createdAt": "2021-07-11T17:32:27.000+00:00",
          "updatedAt": "2021-07-11T17:32:27.000+00:00",
          "deletedAt": null
        }
      ],
      "tagsSlug": [
        "informatics",
        "decoration",
        "animals",
        "troubleshooting"
      ],
      "user": {
        "id": 1,
        "firstName": "Carols",
        "lastName": "DENVER",
        "phone": "000000000",
        "email": "denver@ssdlv.com",
        "password": null,
        "avatar": null,
        "slug": "carols-denver",
        "address": null,
        "createdAt": "2021-07-11T17:00:01.000+00:00",
        "updatedAt": "2021-07-11T17:00:01.000+00:00",
        "deletedAt": null
      },
      "category": {
        "id": 3,
        "title": "Category Title Three",
        "description": "Category Description Three",
        "slug": "category-title-three",
        "activated": true,
        "createdAt": "2021-07-11T16:57:47.000+00:00",
        "updatedAt": "2021-07-11T16:57:47.000+00:00",
        "deletedAt": null
      },
      "offers": [],
      "city": {
        "id": 2,
        "name": "Meknes",
        "createdAt": "2021-07-11T17:32:26.000+00:00",
        "updatedAt": "2021-07-11T17:32:26.000+00:00",
        "deletedAt": null
      },
      "totalOffers": 0
    }
  ],
  "pageable": {
    "sort": {
      "unsorted": true,
      "sorted": false,
      "empty": true
    },
    "pageNumber": 2,
    "pageSize": 2,
    "offset": 4,
    "unpaged": false,
    "paged": true
  },
  "last": true,
  "totalPages": 3,
  "totalElements": 5,
  "first": false,
  "sort": {
    "unsorted": true,
    "sorted": false,
    "empty": true
  },
  "numberOfElements": 1,
  "size": 2,
  "number": 2,
  "empty": false
}
